{"total":6,"offset":0,"next":3,"data":[{"paperId":"f43c0c12a46277da66312e86d722d5489d12db74","externalIds":{"ArXiv":"physics/0603171","MAG":"2050647922","DOI":"10.1088/0305-4470/39/46/004","CorpusId":21066881},"url":"https://www.semanticscholar.org/paper/f43c0c12a46277da66312e86d722d5489d12db74","title":"Memory functions and correlations in additive binary Markov chains","venue":"","year":2006,"openAccessPdf":{"url":"http://arxiv.org/pdf/physics/0603171","status":"GREEN","license":null},"journal":{"name":"Journal of Physics A","pages":"14289-14301","volume":"39"},"authors":[{"authorId":"96683478","name":"S. S. Melnyk"},{"authorId":"1739383","name":"O. Usatenko"},{"authorId":"102950317","name":"V. Yampol’skii"},{"authorId":"103175386","name":"S. Apostolov"},{"authorId":"102688548","name":"Z. A. Mayzelis"}]},{"paperId":"b0fb43b92caa74f96d083658325c8a1f25e7d35d","externalIds":{"MAG":"2040198676","ArXiv":"physics/0603170","DOI":"10.1016/j.chaos.2007.01.054","CorpusId":118896373},"url":"https://www.semanticscholar.org/paper/b0fb43b92caa74f96d083658325c8a1f25e7d35d","title":"Additive N-step Markov chains as prototype model of symbolic stochastic dynamical systems with long-range correlations","venue":"","year":2006,"openAccessPdf":{"url":"https://arxiv.org/pdf/physics/0603170","status":"GREEN","license":null},"journal":{"name":"Chaos Solitons & Fractals","pages":"112-128","volume":"34"},"authors":[{"authorId":"102688548","name":"Z. A. Mayzelis"},{"authorId":"103175386","name":"S. Apostolov"},{"authorId":"2076666087","name":"S. S. Mel'nyk"},{"authorId":"1739383","name":"O. Usatenko"},{"authorId":"102950317","name":"V. Yampol’skii"}]},{"paperId":"c468287c0111641808e180aeca1f1c83f070bd14","externalIds":{"ArXiv":"physics/0412169","MAG":"2952755155","DOI":"10.1016/J.PHYSA.2005.06.083","CorpusId":119390175},"url":"https://www.semanticscholar.org/paper/c468287c0111641808e180aeca1f1c83f070bd14","title":"Memory functions of the additive Markov chains: applications to complex dynamic systems","venue":"","year":2004,"openAccessPdf":{"url":"http://arxiv.org/pdf/physics/0412169","status":"GREEN","license":null},"journal":{"name":"Physica A-statistical Mechanics and Its Applications","pages":"405-415","volume":"361"},"authors":[{"authorId":"96683478","name":"S. S. Melnyk"},{"authorId":"1739383","name":"O. Usatenko"},{"authorId":"102950317","name":"V. Yampol’skii"}]}]}