{"total":1070,"offset":0,"next":3,"data":[{"paperId":"b2d0d6a3d7553ae67a9f6bf0bbe21740b0914163","externalIds":{"MAG":"2473933841","DOI":"10.1017/S0269964803173081","CorpusId":8249269},"url":"https://www.semanticscholar.org/paper/b2d0d6a3d7553ae67a9f6bf0bbe21740b0914163","title":"ON SPECTRAL SIMULATION OF FRACTIONAL BROWNIAN MOTION","venue":"Probability in the engineering and informational sciences (Print)","year":2003,"openAccessPdf":{"url":"https://ir.cwi.nl/pub/4160/04160D.pdf","status":"GREEN","license":"other-oa"},"journal":{"name":"Probability in the Engineering and Informational Sciences","pages":"417 - 434","volume":"17"},"authors":[{"authorId":"2396763090","name":"B. A."},{"authorId":"2396760706","name":"Dieker"},{"authorId":null,"name":"M."},{"authorId":"2254349123","name":"Mandjes"}]},{"paperId":"e253af5c3ca6a76493bd79fabce6f7ddf45d3f7f","externalIds":{"DOI":"10.1017/jpr.2025.10071","CorpusId":286895068},"url":"https://www.semanticscholar.org/paper/e253af5c3ca6a76493bd79fabce6f7ddf45d3f7f","title":"Efficient simulation of fractional Brownian motion","venue":"Journal of Applied Probability","year":2026,"openAccessPdf":{"url":"https://www.cambridge.org/core/services/aop-cambridge-core/content/view/657E027FCE6A7E710E432DA127B85F7C/S0021900225100715a.pdf/div-class-title-efficient-simulation-of-fractional-brownian-motion-div.pdf","status":"HYBRID","license":"CCBY"},"journal":{"name":"Journal of Applied Probability"},"authors":[{"authorId":"2446777","name":"Paul Bilokon"},{"authorId":"2426117301","name":"Yat Chun Chester Wong"}]},{"paperId":"db8c67c57cf630bb1bb5b09c15e9111e4bbf4798","externalIds":{"DBLP":"journals/computation/Rybakov24","ArXiv":"2412.12207","DOI":"10.3390/computation13010019","CorpusId":274788821},"url":"https://www.semanticscholar.org/paper/db8c67c57cf630bb1bb5b09c15e9111e4bbf4798","title":"Spectral Representation and Simulation of Fractional Brownian Motion","venue":"De Computis","year":2024,"openAccessPdf":{"url":"https://doi.org/10.3390/computation13010019","status":"GOLD","license":"CCBY"},"journal":{"name":"Comput.","pages":"19","volume":"13"},"authors":[{"authorId":"2335668140","name":"Konstantin Rybakov"}]}]}